{
	"name": "Menu",
	"layers": [
		{
			"name": "BackgroundMenu",
			"overriden": 0,
			"instances": [
				{
					"type": "menuBackground",
					"properties": {
						"initially-visible": true,
						"origin": "top-left"
					},
					"uid": 54,
					"instanceVariables": {},
					"behaviors": {},
					"world": {
						"x": 0,
						"y": 0,
						"width": 640,
						"height": 360,
						"originX": 0,
						"originY": 0,
						"color": [
							1,
							1,
							1,
							1
						],
						"angle": 0
					}
				},
				{
					"type": "menuInfo",
					"properties": {
						"initially-visible": true,
						"initial-animation": "Default",
						"initial-frame": 0,
						"enable-collisions": false,
						"live-preview": false
					},
					"uid": 45,
					"instanceVariables": {},
					"behaviors": {},
					"world": {
						"x": 320,
						"y": 160,
						"width": 420,
						"height": 25,
						"originX": 0.5,
						"originY": 0.52,
						"color": [
							1,
							1,
							1,
							1
						],
						"angle": 0
					}
				},
				{
					"type": "menuLogoTeam",
					"properties": {
						"initially-visible": true,
						"initial-animation": "Default",
						"initial-frame": 0,
						"enable-collisions": false,
						"live-preview": false
					},
					"uid": 17,
					"instanceVariables": {},
					"behaviors": {},
					"world": {
						"x": 630,
						"y": 180,
						"width": 37.5,
						"height": 10,
						"originX": 0.506667,
						"originY": 0.5,
						"color": [
							1,
							1,
							1,
							1
						],
						"angle": 4.712388936179586
					}
				},
				{
					"type": "menuInfoPad",
					"properties": {
						"initially-visible": true,
						"initial-animation": "Default",
						"initial-frame": 0,
						"enable-collisions": false,
						"live-preview": false
					},
					"uid": 29,
					"instanceVariables": {},
					"behaviors": {},
					"world": {
						"x": 320,
						"y": 200,
						"width": 34,
						"height": 30,
						"originX": 0.5,
						"originY": 0.5,
						"color": [
							1,
							1,
							1,
							1
						],
						"angle": 0
					}
				}
			],
			"sid": 233295170011669,
			"effectTypes": [],
			"isInitiallyVisible": true,
			"color": [
				1,
				1,
				1,
				1
			],
			"backgroundColor": [
				1,
				1,
				1,
				1
			],
			"isTransparent": true,
			"parallaxX": 1,
			"parallaxY": 1,
			"scaleRate": 1,
			"forceOwnTexture": false,
			"useRenderCells": false,
			"blendMode": "normal",
			"global": false
		},
		{
			"name": "MainMenu",
			"overriden": 0,
			"instances": [
				{
					"type": "menuLogoTitle",
					"properties": {
						"initially-visible": true,
						"initial-animation": "Default",
						"initial-frame": 0,
						"enable-collisions": false,
						"live-preview": false
					},
					"uid": 84,
					"instanceVariables": {},
					"behaviors": {},
					"world": {
						"x": 180,
						"y": 180,
						"width": 275,
						"height": 25,
						"originX": 0.501818,
						"originY": 0.52,
						"color": [
							1,
							1,
							1,
							1
						],
						"angle": 0
					}
				},
				{
					"type": "menuButtonPlay",
					"properties": {
						"initially-visible": true,
						"initial-animation": "Default",
						"initial-frame": 0,
						"enable-collisions": false,
						"live-preview": false
					},
					"uid": 170,
					"instanceVariables": {},
					"behaviors": {},
					"world": {
						"x": 410,
						"y": 178,
						"width": 76,
						"height": 76,
						"originX": 0.5,
						"originY": 0.5,
						"color": [
							1,
							1,
							1,
							1
						],
						"angle": 0
					}
				},
				{
					"type": "menuButtonExit",
					"properties": {
						"initially-visible": true,
						"initial-animation": "Default",
						"initial-frame": 0,
						"enable-collisions": false,
						"live-preview": false
					},
					"uid": 171,
					"instanceVariables": {},
					"behaviors": {},
					"world": {
						"x": 530,
						"y": 274,
						"width": 76,
						"height": 76,
						"originX": 0.5,
						"originY": 0.5,
						"color": [
							1,
							1,
							1,
							1
						],
						"angle": 0
					}
				},
				{
					"type": "menuButtonSettings",
					"properties": {
						"initially-visible": true,
						"initial-animation": "Default",
						"initial-frame": 0,
						"enable-collisions": false,
						"live-preview": false
					},
					"uid": 172,
					"instanceVariables": {},
					"behaviors": {},
					"world": {
						"x": 530,
						"y": 86,
						"width": 76,
						"height": 76,
						"originX": 0.5,
						"originY": 0.5,
						"color": [
							1,
							1,
							1,
							1
						],
						"angle": 0
					}
				},
				{
					"type": "fontLoader",
					"properties": {
						"text": ".",
						"enable-bbcode": false,
						"font": "Arial",
						"size": 8.25,
						"line-height": 0,
						"bold": false,
						"italic": false,
						"color": [
							1,
							1,
							1,
							1
						],
						"horizontal-alignment": "left",
						"vertical-alignment": "top",
						"wrapping": "word",
						"initially-visible": true,
						"origin": "top-left"
					},
					"uid": 178,
					"instanceVariables": {},
					"behaviors": {},
					"world": {
						"x": -5,
						"y": -11,
						"width": 18,
						"height": 30,
						"originX": 0,
						"originY": 0,
						"color": [
							1,
							1,
							1,
							1
						],
						"angle": 0
					}
				}
			],
			"sid": 750916869982328,
			"effectTypes": [],
			"isInitiallyVisible": true,
			"color": [
				1,
				1,
				1,
				1
			],
			"backgroundColor": [
				1,
				1,
				1,
				1
			],
			"isTransparent": true,
			"parallaxX": 1,
			"parallaxY": 1,
			"scaleRate": 1,
			"forceOwnTexture": false,
			"useRenderCells": false,
			"blendMode": "normal",
			"global": false
		},
		{
			"name": "Interface",
			"overriden": 0,
			"instances": [
				{
					"type": "uiPauseBackground",
					"properties": {
						"initially-visible": false,
						"initial-animation": "Default",
						"initial-frame": 0,
						"enable-collisions": false,
						"live-preview": false
					},
					"uid": 447,
					"instanceVariables": {
						"paused": false
					},
					"behaviors": {},
					"world": {
						"x": 313,
						"y": 734,
						"width": 400,
						"height": 365,
						"originX": 0.5,
						"originY": 0.50137,
						"color": [
							1,
							1,
							1,
							1
						],
						"angle": 0
					}
				},
				{
					"type": "uiLoadingBarFrame",
					"properties": {
						"left-margin": 2,
						"right-margin": 2,
						"top-margin": 2,
						"bottom-margin": 2,
						"edges": "stretch",
						"fill": "stretch",
						"initially-visible": false,
						"origin": "bottom-left",
						"seams": "overlap"
					},
					"uid": 670,
					"instanceVariables": {},
					"behaviors": {},
					"world": {
						"x": 534,
						"y": 589,
						"width": 8,
						"height": 8,
						"originX": 0,
						"originY": 1,
						"color": [
							1,
							1,
							1,
							1
						],
						"angle": 0
					}
				},
				{
					"type": "uiLoadingBarBackground",
					"properties": {
						"initially-visible": false,
						"initial-animation": "Default",
						"initial-frame": 0,
						"enable-collisions": false,
						"live-preview": false
					},
					"uid": 685,
					"instanceVariables": {},
					"behaviors": {},
					"world": {
						"x": 136,
						"y": 573,
						"width": 365,
						"height": 4,
						"originX": 0,
						"originY": 0.5,
						"color": [
							1,
							1,
							1,
							1
						],
						"angle": 0
					}
				},
				{
					"type": "uiLoadingBarFill",
					"properties": {
						"initially-visible": false,
						"initial-animation": "Default",
						"initial-frame": 0,
						"enable-collisions": false,
						"live-preview": false
					},
					"uid": 686,
					"instanceVariables": {
						"initwidth": 0
					},
					"behaviors": {},
					"world": {
						"x": 130,
						"y": 584,
						"width": 365,
						"height": 4,
						"originX": 0,
						"originY": 0.5,
						"color": [
							1,
							1,
							1,
							1
						],
						"angle": 0
					}
				}
			],
			"sid": 548047625151492,
			"effectTypes": [],
			"isInitiallyVisible": true,
			"color": [
				1,
				1,
				1,
				1
			],
			"backgroundColor": [
				1,
				1,
				1,
				1
			],
			"isTransparent": true,
			"parallaxX": 1,
			"parallaxY": 1,
			"scaleRate": 1,
			"forceOwnTexture": false,
			"useRenderCells": false,
			"blendMode": "normal",
			"global": false
		}
	],
	"sid": 239242580356117,
	"nonworld-instances": [
		{
			"type": "varGen",
			"properties": {
				"width": 0,
				"height": 0,
				"depth": 0
			},
			"uid": 30,
			"instanceVariables": {
				"controlInUse": 0,
				"keyboardInUse": 0,
				"gamepadInUse": 0,
				"mainPad": 0,
				"inputBuffer": 0.15,
				"activeLevel": "",
				"fillBloc": 0,
				"moveCursorBloc": 0,
				"hudBloc": 0,
				"dialoguePlayin": 0,
				"dialogueControlBloc": 0
			}
		},
		{
			"type": "varSet",
			"properties": {
				"width": 0,
				"height": 0,
				"depth": 0
			},
			"uid": 46,
			"instanceVariables": {
				"volumeFX": 0,
				"volumeMusic": 0,
				"textSpeed": 0,
				"language": 0,
				"dic": ""
			}
		}
	],
	"effectTypes": [],
	"width": 640,
	"height": 360,
	"unboundedScrolling": false,
	"eventSheet": "_Menu"
}