{
	"name": "actionCamera",
	"plugin-id": "Sprite",
	"sid": 609823257800676,
	"isGlobal": false,
	"instanceVariables": [
		{
			"name": "camBufferMov",
			"type": "number",
			"desc": "",
			"sid": 356057236782923
		},
		{
			"name": "camBufferAim",
			"type": "number",
			"desc": "",
			"sid": 561493021221490
		},
		{
			"name": "smoothMov",
			"type": "number",
			"desc": "",
			"sid": 778901516677872
		},
		{
			"name": "smoothAim",
			"type": "number",
			"desc": "",
			"sid": 557028603490262
		}
	],
	"behaviorTypes": [],
	"effectTypes": [],
	"animations": {
		"items": [
			{
				"frames": [
					{
						"width": 32,
						"height": 32,
						"originX": 0.5,
						"originY": 0.5,
						"originalSource": "",
						"exportFormat": "png",
						"exportQuality": 0.8,
						"imageSpriteId": 51,
						"duration": 0
					}
				],
				"sid": 588369487189515,
				"name": "Default",
				"isLooping": false,
				"isPingPong": false,
				"repeatCount": 1,
				"repeatTo": 0,
				"speed": 0
			}
		],
		"subfolders": []
	}
}