{
	"name": "ebullet1",
	"plugin-id": "Sprite",
	"sid": 241751456673917,
	"isGlobal": false,
	"instanceVariables": [],
	"behaviorTypes": [],
	"effectTypes": [],
	"animations": {
		"items": [
			{
				"frames": [
					{
						"width": 24,
						"height": 12,
						"originX": 0.5,
						"originY": 0.5,
						"originalSource": "",
						"exportFormat": "png",
						"exportQuality": 0.8,
						"imageSpriteId": 35,
						"imagePoints": [
							{
								"name": "Imagepoint 1",
								"x": 1,
								"y": 0.5
							}
						],
						"duration": 0
					}
				],
				"sid": 712239547063686,
				"name": "Default",
				"isLooping": false,
				"isPingPong": false,
				"repeatCount": 1,
				"repeatTo": 0,
				"speed": 0
			}
		],
		"subfolders": []
	}
}