{
	"name": "playerWeaponAimVisual",
	"plugin-id": "Sprite",
	"sid": 162808635322205,
	"isGlobal": false,
	"instanceVariables": [],
	"behaviorTypes": [],
	"effectTypes": [],
	"animations": {
		"items": [
			{
				"frames": [
					{
						"width": 2,
						"height": 2,
						"originX": 0,
						"originY": 0.5,
						"originalSource": "",
						"exportFormat": "png",
						"exportQuality": 0.8,
						"imageSpriteId": 124,
						"duration": 0
					},
					{
						"width": 2,
						"height": 2,
						"originX": 0,
						"originY": 0.5,
						"originalSource": "",
						"exportFormat": "png",
						"exportQuality": 0.8,
						"imageSpriteId": 125,
						"duration": 0
					}
				],
				"sid": 444687391688943,
				"name": "Default",
				"isLooping": false,
				"isPingPong": false,
				"repeatCount": 1,
				"repeatTo": 0,
				"speed": 0
			},
			{
				"frames": [
					{
						"width": 2,
						"height": 2,
						"originX": 0,
						"originY": 0.5,
						"originalSource": "",
						"exportFormat": "png",
						"exportQuality": 0.8,
						"imageSpriteId": 126,
						"duration": 0
					},
					{
						"width": 2,
						"height": 2,
						"originX": 0,
						"originY": 0.5,
						"originalSource": "",
						"exportFormat": "png",
						"exportQuality": 0.8,
						"imageSpriteId": 127,
						"duration": 0
					}
				],
				"sid": 518301710242663,
				"name": "Fail",
				"isLooping": false,
				"isPingPong": false,
				"repeatCount": 1,
				"repeatTo": 0,
				"speed": 0
			}
		],
		"subfolders": []
	}
}