{
	"name": "uiMagnitudeArmorFrame",
	"plugin-id": "Sprite",
	"sid": 491650967250872,
	"isGlobal": false,
	"instanceVariables": [],
	"behaviorTypes": [],
	"effectTypes": [],
	"animations": {
		"items": [
			{
				"frames": [
					{
						"width": 220,
						"height": 20,
						"originX": 0,
						"originY": 0,
						"originalSource": "F:\\Dropbox\\AITTD\\Proyectos\\Proyecto - Chronoshift\\Art\\Demo\\UI\\Base.png",
						"exportFormat": "png",
						"exportQuality": 0.8,
						"imageSpriteId": 30,
						"collisionPoly": {
							"points": [
								0.0666667,
								0.118519,
								0.021875,
								0.5,
								0.0197917,
								0.5
							]
						},
						"duration": 0
					}
				],
				"sid": 854964935527892,
				"name": "Default",
				"isLooping": false,
				"isPingPong": false,
				"repeatCount": 1,
				"repeatTo": 0,
				"speed": 0
			}
		],
		"subfolders": []
	}
}